<!-- Generator: Adobe Illustrator 16.0.3, SVG Export Plug-In . SVG Version: 6.00 Build 0)  -->
<!DOCTYPE svg PUBLIC "-//W3C//DTD SVG 1.1//EN" "http://www.w3.org/Graphics/SVG/1.1/DTD/svg11.dtd">
<svg version="1.1" id="Warstwa_1" xmlns="http://www.w3.org/2000/svg" xmlns:xlink="http://www.w3.org/1999/xlink" x="0px" y="0px"
	 width="97.322px" height="107.549px" viewBox="70.723 46.227 97.322 107.549"
	 enable-background="new 70.723 46.227 97.322 107.549" xml:space="preserve">
<g>
	<path fill="#383938" d="M123.78,118.766c1.107,1.58,1.744,3.453,1.822,5.385l26.126-15.201c-1.829-1.299-4.261-1.659-6.479-0.732
		L123.78,118.766z"/>
	<path fill="#383938" d="M166.498,110.409c-2.422-3.464-7.865-2.759-13.056,0.313c-8.911,5.275-28.184,16.438-28.184,16.438
		c-0.15,0.545-0.334,1.087-0.579,1.615c-1.291,2.766-3.73,4.771-6.697,5.509c-2.214,0.545-4.575,0.315-6.643-0.651l-14.96-7.146
		v-2.545l15.975,7.515c1.336,0.624,2.76,0.817,4.115,0.655c0.252-0.027,0.504-0.068,0.75-0.123c0.061-0.014,0.13-0.023,0.188-0.04
		c1.526-0.375,2.915-1.228,3.968-2.452c0.436-0.516,0.824-1.091,1.125-1.734c0.323-0.691,0.531-1.41,0.633-2.13
		c0.303-2.077-0.279-4.179-1.554-5.808c-0.718-0.913-1.649-1.684-2.776-2.208c0,0-17.161-7.993-22.88-10.657
		c-2.275-1.063-5.113-0.218-8.312,0.341c-3.256,0.565-15.716,2.552-15.716,2.552c-0.644,0.14-1.172,0.797-1.172,1.457l0.013,28.926
		c0,0.662,0.538,1.203,1.199,1.203h11.278c0,0,1.604-0.049,2.49,0.141c0.494,0.104,1.741,0.6,1.741,0.6l29.117,11.326
		c1.271,0.348,2.599,0.36,3.852,0.051c0.603-0.148,1.213-0.334,1.744-0.668c9.102-5.682,37.184-27.563,40.262-29.969
		C169.486,117.409,168.692,113.539,166.498,110.409z"/>
	<path fill="#383938" d="M106.535,67.041c1.151-0.934,2.599-1.448,4.077-1.448c1.958,0,3.791,0.875,5.028,2.395l3.566,4.395
		l10.849-14.17l0.532-0.695c-3.202-2.156-7.058-3.417-11.2-3.417c-11.098,0-20.124,9.027-20.124,20.125s9.026,20.125,20.124,20.125
		c11.098,0,20.121-9.027,20.121-20.125c0-2.057-0.31-4.04-0.885-5.914l-0.661,0.869l-13.465,17.586
		c-1.212,1.584-3.055,2.508-5.048,2.538h-0.089c-1.962,0-3.794-0.872-5.024-2.391l-8.744-10.771
		c-1.093-1.338-1.594-3.025-1.417-4.745C104.351,69.677,105.188,68.131,106.535,67.041z"/>
	<path fill="#383938" d="M133.73,57.731l-0.534,0.695l-0.532,0.698l-0.531,0.695l-1.179,1.533l-11.687,15.271l-5.665-6.983
		c-1.342-1.649-3.764-1.9-5.413-0.562c-1.652,1.342-1.904,3.764-0.565,5.412l8.744,10.768c0.732,0.902,1.825,1.421,2.99,1.421h0.051
		c1.182-0.018,2.278-0.569,3.001-1.509l13.134-17.151l1.356-1.768l0.6-0.787l0.589-0.769l0.585-0.77l0.263-0.337l2.354-3.08
		l0.739-0.967c1.294-1.686,0.974-4.102-0.711-5.392c-0.634-0.484-1.367-0.739-2.103-0.783c-1.236-0.076-2.479,0.442-3.294,1.499
		l-1.955,2.558L133.73,57.731z"/>
	<path fill="#383938" d="M91.785,78.996c-0.862,1.676-0.272,3.873,1.311,4.899l2.671,1.724c0.975,0.63,1.88,2.204,1.941,3.362
		l0.157,3.175c0.095,1.88,1.703,3.491,3.59,3.586l3.174,0.16c1.158,0.058,2.732,0.964,3.359,1.942l1.73,2.668
		c0.675,1.059,1.915,1.713,3.216,1.713c0.593,0,1.172-0.14,1.679-0.398l2.831-1.451c0.497-0.252,1.199-0.396,1.941-0.396
		c0.736,0,1.444,0.144,1.941,0.396l2.828,1.451c0.507,0.26,1.09,0.398,1.683,0.398c1.301,0,2.537-0.658,3.216-1.713l1.723-2.668
		c0.634-0.978,2.204-1.884,3.365-1.942l3.171-0.16c1.887-0.095,3.495-1.706,3.587-3.586l0.163-3.175
		c0.058-1.158,0.96-2.732,1.935-3.362l2.673-1.724c1.584-1.026,2.173-3.223,1.312-4.899l-1.448-2.83
		c-0.528-1.036-0.528-2.848,0-3.883l1.448-2.827c0.862-1.68,0.272-3.876-1.308-4.901l-2.677-1.724
		c-0.038-0.027-0.076-0.058-0.116-0.085L139.9,66.64c0.876,2.368,1.359,4.918,1.359,7.586c0,12.062-9.813,21.875-21.875,21.875
		c-12.065,0-21.879-9.813-21.879-21.875s9.814-21.875,21.879-21.875c4.544,0,8.768,1.394,12.266,3.778l2.19-2.858
		c0.194-0.252,0.405-0.487,0.626-0.706l-0.327-0.017c-1.161-0.061-2.735-0.964-3.365-1.941l-1.723-2.667
		c-0.679-1.059-1.915-1.713-3.216-1.713c-0.592,0-1.176,0.136-1.683,0.399l-2.831,1.447c-0.494,0.256-1.202,0.402-1.938,0.402
		c-0.743,0-1.444-0.146-1.941-0.402l-2.831-1.447c-0.507-0.263-1.086-0.399-1.679-0.399c-1.301,0-2.541,0.654-3.216,1.713
		l-1.73,2.667c-0.627,0.977-2.201,1.88-3.359,1.941l-3.174,0.16c-1.887,0.092-3.495,1.704-3.59,3.583l-0.157,3.178
		c-0.061,1.162-0.967,2.728-1.941,3.362l-2.671,1.724c-1.583,1.025-2.173,3.222-1.311,4.901l1.445,2.827
		c0.534,1.036,0.534,2.851,0,3.883L91.785,78.996z"/>
</g>
</svg>
